…
---

```r
library(googlesheets)
 gs_title("CEAB Enrolment 2011-2015") %>% 
  gs_read("total_enrolment")
```

```
## # A tibble: 96 × 17
##    enrolment_type Institution Biosystems Chemical Civil Computer
##             <chr>       <chr>      <int>    <int> <dbl>    <int>
## 1           total      Acadia         NA       NA    NA       NA
## 2           total     Alberta         NA      603   648      188
## 3           total        BCIT         NA       NA   190       NA
## 4           total     Calgary         NA      350   364       NA
## 5           total Cape Breton         NA       NA    NA       NA
## 6           total    Carleton        167        0   802      302
## 7           total   Concordia         NA       NA   999      187
## 8           total   Conestoga         NA       NA    NA       57
## 9           total         Dal         NA      102   116       NA
## 10          total         ETS         NA       NA  1589       NA
## # ... with 86 more rows, and 11 more variables: Electrical <dbl>,
## #   `Engineering Physics` <int>, Environmental <int>, Geological <int>,
## #   `Industrial or Manufacturing` <int>, `Materials or
## #   Metallurgical` <int>, Mechanical <dbl>, `Mining or Mineral` <int>,
## #   Software <int>, Other <int>, `Year One/Two Common Year` <int>
```
…
